%YAML 1.1
%TAG !u! tag:unity3d.com,2011:
--- !u!1045 &1
EditorBuildSettings:
  m_ObjectHideFlags: 0
  serializedVersion: 2
  m_Scenes:
  - enabled: 1
    path: Assets/Scenes/MainScene.unity
    guid: 88c5ce6916af5a546897d54956ec01cc
  m_configObjects:
    com.unity.input.settings: {fileID: 11400000, guid: f62b352493b287d4e8732536c6dc374c, type: 2}
